<?xml version="1.0" encoding="iso-8859-1"?>
<!-- Generator: Adobe Illustrator 22.0.1, SVG Export Plug-In . SVG Version: 6.00 Build 0)  -->
<svg version="1.1" xmlns="http://www.w3.org/2000/svg" xmlns:xlink="http://www.w3.org/1999/xlink" x="0px" y="0px"
	 viewBox="0 0 512 512" style="enable-background:new 0 0 512 512;" xml:space="preserve">
<g id="BULINE">
	<circle id="XMLID_2019_" style="fill:#AC60FC;" cx="256" cy="256" r="256"/>
</g>
<g id="Icons">
	<g id="XMLID_190_">
		<path id="XMLID_1184_" style="fill:#27273D;" d="M442.587,215.732H67.413c-6.869,0-12.438-5.569-12.438-12.438v-13.415h400.05
			v13.415C455.025,210.163,449.456,215.732,442.587,215.732z"/>
		<g id="XMLID_1172_">
			<path id="XMLID_1183_" style="fill:#3E436D;" d="M446.875,442.908H63.125c-4.501,0-8.15-3.649-8.15-8.15v-24.18h400.05v24.18
				C455.025,439.259,451.376,442.908,446.875,442.908z"/>
			<path id="XMLID_1182_" style="fill:#FFFFFF;" d="M473.996,314.528v88.955c0,4.427-3.588,8.015-8.015,8.015H44.019
				c-4.427,0-8.015-3.588-8.015-8.015v-88.955c0-4.427,3.588-8.015,8.015-8.015h421.962
				C470.407,306.513,473.996,310.102,473.996,314.528z"/>
			<path id="XMLID_1181_" style="fill:#27273D;" d="M103.968,434.62H73.578c-2.899,0-5.249-2.35-5.249-5.249v-2.763
				c0-2.899,2.35-5.249,5.249-5.249h30.391c2.899,0,5.249,2.35,5.249,5.249v2.763C109.218,432.27,106.867,434.62,103.968,434.62z"/>
			<path id="XMLID_1180_" style="fill:#27273D;" d="M435.501,436.001h-18.234c-4.425,0-8.012-3.587-8.012-8.012l0,0
				c0-4.425,3.587-8.012,8.012-8.012h18.234c4.425,0,8.012,3.587,8.012,8.012l0,0C443.513,432.414,439.926,436.001,435.501,436.001z
				"/>
			<path id="XMLID_1179_" style="fill:#D1D1D1;" d="M474,387.188v16.3c0,4.42-3.592,8.012-8.023,8.012H44.024
				c-4.431,0-8.023-3.592-8.023-8.012v-88.961c0-4.42,3.592-8.012,8.023-8.012h45.763v72.661c0,4.42,3.592,8.012,8.012,8.012H474z"
				/>
			<path id="XMLID_1178_" style="fill:#00B764;" d="M425.5,359.583l-10.421,10.421c-1.945-3.006-3.061-6.586-3.061-10.421
				c0-3.846,1.116-7.426,3.061-10.432L425.5,359.583z"/>
			<path id="XMLID_1177_" style="fill:#00B764;" d="M431.357,353.715l-10.421-10.421c3.006-1.934,6.586-3.05,10.421-3.05
				s7.415,1.116,10.421,3.05L431.357,353.715z"/>
			<path id="XMLID_1176_" style="fill:#00B764;" d="M431.357,365.44l10.421,10.421c-3.006,1.945-6.586,3.061-10.421,3.061
				s-7.415-1.116-10.421-3.061L431.357,365.44z"/>
			<path id="XMLID_1175_" style="fill:#00B764;" d="M450.696,359.583c0,3.835-1.116,7.415-3.061,10.421l-10.421-10.421
				l10.421-10.432C449.58,352.156,450.696,355.737,450.696,359.583z"/>
			<path id="XMLID_1174_" style="fill:#27273D;" d="M348.75,368.676H36.004v-19.339H348.75c5.34,0,9.67,4.329,9.67,9.67l0,0
				C358.42,364.346,354.091,368.676,348.75,368.676z"/>
			<rect id="XMLID_1173_" x="36" y="349.338" style="fill:#1E1E2D;" width="53.786" height="19.339"/>
		</g>
		<path id="XMLID_1171_" style="fill:#3E436D;" d="M473.996,96.93v88.955c0,4.427-3.588,8.015-8.015,8.015H44.019
			c-4.427,0-8.015-3.588-8.015-8.015V96.93c0-4.427,3.588-8.015,8.015-8.015h421.962C470.407,88.915,473.996,92.503,473.996,96.93z"
			/>
		<rect id="XMLID_1170_" x="36" y="130.357" style="fill:#27273D;" width="437.995" height="22.102"/>
		<rect id="XMLID_1169_" x="211.901" y="88.915" style="fill:#27273D;" width="22.102" height="104.224"/>
		<circle id="XMLID_1168_" style="fill:#DD1B1B;" cx="441.778" cy="162.879" r="13.63"/>
		<g id="XMLID_1159_">
			<circle id="XMLID_1167_" style="fill:#DD1B1B;" cx="249.412" cy="253.087" r="66.311"/>
			<circle id="XMLID_1166_" style="fill:#FFFFFF;" cx="249.412" cy="253.087" r="49.484"/>
			<g id="XMLID_1160_">
				<path id="XMLID_1164_" style="fill:#27273D;" d="M232.309,284.338c-3.534,0-5.55-0.053-6.047-0.157
					c-0.498-0.104-0.917-0.484-1.257-1.139c-2.984-5.89-5.982-11.794-8.992-17.711c-4.739-9.503-7.108-14.883-7.108-16.14
					c0-2.068,0.071-5.177,0.216-9.326c0.144-4.149,0.216-7.258,0.216-9.327c0-0.968,0.261-1.453,0.786-1.453
					c1.571,0,3.953,0.066,7.147,0.196c3.194,0.131,5.589,0.196,7.186,0.196c0.654,0,0.982,0.275,0.982,0.825
					c0,2.121-0.151,5.308-0.451,9.562c-0.301,4.254-0.452,7.441-0.452,9.562c0,1.624,2.657,7.422,7.972,17.397
					c1.439-2.592,3.076-5.773,4.909-9.543c2.461-5.079,3.691-8.194,3.691-9.346c0-1.911-0.026-4.784-0.078-8.62
					c-0.053-3.835-0.079-6.709-0.079-8.62c0-0.707,0.118-1.1,0.353-1.178h1.257c1.44,0,3.619-0.072,6.539-0.216
					c2.918-0.144,5.098-0.216,6.539-0.216c0.785,0,1.178,0.314,1.178,0.943c0,2.016-0.033,5.06-0.098,9.13
					c-0.066,4.071-0.099,7.128-0.099,9.17c0,1.624-2.578,7.593-7.736,17.907c-2.042,3.718-4.987,9.32-8.836,16.807
					c-0.262,0.577-0.439,0.897-0.53,0.962c-0.092,0.066-0.426,0.125-1.002,0.177C237.179,284.285,235.11,284.338,232.309,284.338z"
					/>
				<path id="XMLID_1161_" style="fill:#27273D;" d="M289.408,266.116c0,5.315-2.239,9.87-6.715,13.666
					c-3.927,3.351-8.705,5.484-14.334,6.402c-0.21,0.025-0.38,0.039-0.511,0.039c-0.603,0-1.938-1.84-4.006-5.517
					c-2.068-3.678-3.102-5.924-3.102-6.735c0-0.288,0.196-0.471,0.589-0.549c3.796-0.864,6.309-1.597,7.54-2.199
					c2.722-1.361,4.084-3.377,4.084-6.048c0-1.701-0.89-3.599-2.67-5.694c-3.089-3.56-4.765-5.537-5.026-5.93
					c-1.807-2.722-2.71-5.733-2.71-9.032c0-4.791,2.212-8.77,6.636-11.938c3.613-2.618,8.051-4.32,13.313-5.105
					c0.287-0.026,0.51-0.04,0.667-0.04c0.393,0,0.707,0.314,0.942,0.943c0.681,1.911,2.265,5.367,4.752,10.367
					c0.079,0.157,0.118,0.288,0.118,0.393c0,0.445-0.236,0.668-0.707,0.668c-0.21,0-0.563-0.04-1.06-0.118
					c-0.498-0.079-0.878-0.118-1.139-0.118c-1.885,0-3.534,0.432-4.948,1.296c-1.702,0.995-2.553,2.383-2.553,4.163
					c0,1.597,0.942,3.561,2.828,5.89c3.324,4.189,5.066,6.388,5.223,6.597C288.478,260.397,289.408,263.263,289.408,266.116z"/>
			</g>
		</g>
	</g>
</g>
</svg>
