<?xml version="1.0" encoding="iso-8859-1"?>
<!-- Generator: Adobe Illustrator 22.0.1, SVG Export Plug-In . SVG Version: 6.00 Build 0)  -->
<svg version="1.1" xmlns="http://www.w3.org/2000/svg" xmlns:xlink="http://www.w3.org/1999/xlink" x="0px" y="0px"
	 viewBox="0 0 512 512" style="enable-background:new 0 0 512 512;" xml:space="preserve">
<g id="BULINE">
	<circle id="XMLID_2069_" style="fill:#4B4C9B;" cx="256" cy="256" r="256"/>
</g>
<g id="Icons">
	<g id="XMLID_990_">
		<g id="XMLID_1087_">
			<path id="XMLID_1089_" style="fill:#27273D;" d="M263.758,222.56h-15v-36.816c0-4.114-3.347-7.461-7.461-7.461
				c-19.321,0-35.039-15.718-35.039-35.039s15.718-35.039,35.039-35.039c4.114,0,7.461-3.347,7.461-7.461V65.487h15v35.256
				c0,12.385-10.076,22.461-22.461,22.461c-11.05,0-20.039,8.989-20.039,20.039s8.989,20.039,20.039,20.039
				c12.385,0,22.461,10.076,22.461,22.461V222.56z"/>
		</g>
		<g id="XMLID_998_">
			<path id="XMLID_1086_" style="fill:#FFFFFF;" d="M373.758,222.992h-237c-57.99,0-105,47.01-105,105c0,57.99,47.01,105,105,105
				c35.128,0,66.223-17.253,85.284-43.745h66.433c19.061,26.491,50.156,43.745,85.284,43.745c57.99,0,105-47.01,105-105
				C478.758,270.002,431.748,222.992,373.758,222.992z"/>
			<path id="XMLID_1085_" style="fill:#D3D3D3;" d="M478.758,328.906c0,57.99-47.01,105-105,105c-35.13,0-66.22-17.26-85.28-43.75
				h-66.44c-19.06,26.49-50.15,43.75-85.28,43.75c-57.99,0-105-47.01-105-105c0-6.43,0.58-12.72,1.69-18.83
				c8.87,49,51.75,86.16,103.31,86.16c35.13,0,66.22-17.25,85.28-43.74h66.44c19.06,26.49,50.15,43.74,85.28,43.74
				c51.56,0,94.44-37.16,103.31-86.16C478.178,316.187,478.758,322.477,478.758,328.906z"/>
			<circle id="XMLID_1084_" style="fill:#3E436D;" cx="381.758" cy="314.992" r="65"/>
			<circle id="XMLID_1083_" style="fill:#3E436D;" cx="131.758" cy="314.992" r="65"/>
			<path id="XMLID_1082_" style="fill:#D3D3D3;" d="M174.457,294.309h-13.383c-4.769,0-8.634-3.866-8.634-8.634v-13.382
				c0-4.769-3.866-8.634-8.634-8.634H119.71c-4.769,0-8.634,3.866-8.634,8.634v13.382c0,4.769-3.866,8.634-8.634,8.634H89.059
				c-4.769,0-8.634,3.866-8.634,8.634v24.096c0,4.769,3.866,8.634,8.634,8.634h13.383c4.769,0,8.634,3.866,8.634,8.634v13.382
				c0,4.769,3.866,8.634,8.634,8.634h24.096c4.769,0,8.634-3.866,8.634-8.634v-13.382c0-4.769,3.866-8.634,8.634-8.634h13.383
				c4.769,0,8.634-3.866,8.634-8.634v-24.096C183.091,298.175,179.226,294.309,174.457,294.309z"/>
			<g id="XMLID_1001_">
				<circle id="XMLID_1081_" style="fill:#F8D572;" cx="380.499" cy="275.957" r="20.989"/>
				<circle id="XMLID_1080_" style="fill:#F9BD38;" cx="380.499" cy="275.957" r="17.406"/>
				<path id="XMLID_1079_" style="fill:#E2C06D;" d="M371.711,275.957c0,7.244,3.668,13.63,9.251,17.401
					c0.573,0.389,1.167,0.75,1.782,1.08c1.218,0.658,2.509,1.198,3.857,1.605c-1.93,0.589-3.98,0.904-6.102,0.904
					c-11.593,0-20.989-9.397-20.989-20.989c0-0.182,0.003-0.361,0.008-0.543c0.003-0.118,0.005-0.238,0.013-0.356
					c0-0.018,0-0.036,0.003-0.056c0.003-0.079,0.008-0.161,0.013-0.241c0.617-11.037,9.765-19.794,20.954-19.794
					c2.122,0,4.172,0.315,6.102,0.904c-2.027,0.612-3.924,1.526-5.639,2.685C375.379,262.326,371.711,268.713,371.711,275.957z"/>
				<path id="XMLID_1078_" style="fill:#DDA636;" d="M380.962,293.357c-0.154,0.003-0.31,0.005-0.463,0.005
					c-9.612,0-17.406-7.792-17.406-17.406c0-9.612,7.794-17.406,17.406-17.406c0.154,0,0.31,0.003,0.463,0.005
					c-5.583,3.77-9.251,10.157-9.251,17.401C371.711,283.2,375.379,289.587,380.962,293.357z"/>
				<g id="XMLID_1073_">
					<circle id="XMLID_1077_" style="fill:#3588CD;" cx="344.622" cy="316.997" r="20.989"/>
					<path id="XMLID_1076_" style="fill:#3385BC;" d="M335.835,316.997c0,7.244,3.668,13.63,9.251,17.401
						c0.573,0.389,1.167,0.75,1.782,1.08c1.218,0.658,2.509,1.198,3.857,1.605c-1.93,0.589-3.98,0.904-6.102,0.904
						c-11.593,0-20.989-9.397-20.989-20.989c0-0.182,0.003-0.361,0.008-0.543c0.003-0.118,0.005-0.238,0.013-0.356
						c0-0.018,0-0.036,0.003-0.056c0.003-0.079,0.008-0.161,0.013-0.241c0.617-11.037,9.765-19.794,20.954-19.794
						c2.122,0,4.172,0.315,6.102,0.904c-2.027,0.612-3.924,1.526-5.639,2.685C339.503,303.366,335.835,309.753,335.835,316.997z"/>
					<circle id="XMLID_1075_" style="fill:#366FCC;" cx="344.622" cy="316.997" r="17.406"/>
					<path id="XMLID_1074_" style="fill:#3268B7;" d="M351.312,333.494c-1.736,0.59-3.599,0.906-5.54,0.906
						c-9.609,0-17.406-7.788-17.406-17.406c0-9.609,7.797-17.406,17.406-17.406c1.941,0,3.804,0.316,5.54,0.906
						c-6.899,2.308-11.866,8.831-11.866,16.5C339.446,324.671,344.413,331.185,351.312,333.494z"/>
				</g>
				<circle id="XMLID_1072_" style="fill:#ED4F4F;" cx="418.894" cy="316.997" r="20.989"/>
				<circle id="XMLID_1071_" style="fill:#DD1B1B;" cx="418.894" cy="316.997" r="17.406"/>
				<path id="XMLID_1069_" style="fill:#CC4A4A;" d="M410.106,316.997c0,7.244,3.668,13.63,9.251,17.401
					c0.573,0.389,1.167,0.75,1.782,1.08c1.218,0.658,2.509,1.198,3.857,1.605c-1.93,0.589-3.98,0.904-6.102,0.904
					c-11.593,0-20.989-9.397-20.989-20.989c0-0.182,0.003-0.361,0.008-0.543c0.003-0.118,0.005-0.238,0.013-0.356
					c0-0.018,0-0.036,0.003-0.056c0.003-0.079,0.008-0.161,0.013-0.241c0.617-11.037,9.765-19.794,20.954-19.794
					c2.122,0,4.172,0.315,6.102,0.904c-2.027,0.612-3.924,1.526-5.639,2.685C413.774,303.366,410.106,309.753,410.106,316.997z"/>
				<path id="XMLID_1068_" style="fill:#BC1B1B;" d="M419.357,334.397c-0.154,0.003-0.31,0.005-0.463,0.005
					c-9.612,0-17.406-7.792-17.406-17.406c0-9.612,7.794-17.406,17.406-17.406c0.154,0,0.31,0.003,0.463,0.005
					c-5.583,3.77-9.251,10.157-9.251,17.401C410.106,324.24,413.774,330.627,419.357,334.397z"/>
				<circle id="XMLID_1067_" style="fill:#03E277;" cx="380.499" cy="354.026" r="20.989"/>
				<circle id="XMLID_1004_" style="fill:#00B764;" cx="380.499" cy="354.026" r="17.406"/>
				<path id="XMLID_1003_" style="fill:#05CC68;" d="M371.711,354.026c0,7.244,3.668,13.63,9.251,17.401
					c0.573,0.389,1.167,0.75,1.782,1.08c1.218,0.658,2.509,1.198,3.857,1.605c-1.93,0.589-3.98,0.904-6.102,0.904
					c-11.593,0-20.989-9.397-20.989-20.989c0-0.182,0.003-0.361,0.008-0.543c0.003-0.118,0.005-0.238,0.013-0.356
					c0-0.018,0-0.036,0.003-0.056c0.003-0.079,0.008-0.161,0.013-0.241c0.617-11.037,9.765-19.794,20.954-19.794
					c2.122,0,4.172,0.315,6.102,0.904c-2.027,0.612-3.924,1.526-5.639,2.685C375.379,340.396,371.711,346.783,371.711,354.026z"/>
				<path id="XMLID_1002_" style="fill:#049E54;" d="M380.962,371.427c-0.154,0.003-0.31,0.005-0.463,0.005
					c-9.612,0-17.406-7.792-17.406-17.406c0-9.612,7.794-17.406,17.406-17.406c0.154,0,0.31,0.003,0.463,0.005
					c-5.583,3.77-9.251,10.157-9.251,17.401C371.711,361.27,375.379,367.657,380.962,371.427z"/>
			</g>
			<path id="XMLID_1000_" style="fill:#27273D;" d="M237.652,333.037h-21.788c-5.72,0-10.356-4.637-10.356-10.356v0
				c0-5.72,4.637-10.356,10.356-10.356h21.788c5.72,0,10.356,4.637,10.356,10.356v0C248.008,328.4,243.371,333.037,237.652,333.037z
				"/>
			<path id="XMLID_999_" style="fill:#27273D;" d="M294.652,333.037h-21.788c-5.72,0-10.356-4.637-10.356-10.356v0
				c0-5.72,4.637-10.356,10.356-10.356h21.788c5.72,0,10.356,4.637,10.356,10.356v0C305.008,328.4,300.371,333.037,294.652,333.037z
				"/>
		</g>
		<g id="XMLID_992_">
			<path id="XMLID_997_" style="fill:#954CF7;" d="M283.962,21.001h-55.407c-5.646,0-10.222,4.577-10.222,10.222V44.82h75.852
				V31.224C294.184,25.578,289.607,21.001,283.962,21.001z"/>
			<path id="XMLID_996_" style="fill:#8045DD;" d="M294.183,34.82v10h-75.85v-13.6c0-5.644,4.576-10.22,10.22-10.22h3.45v6.628
				c0,3.972,3.22,7.192,7.192,7.192H294.183z"/>
			<path id="XMLID_995_" style="fill:#AC60FC;" d="M296.762,86.565h-81.008c-5.715,0-10.348-4.633-10.348-10.348V53.785
				c0-5.715,4.633-10.348,10.348-10.348h81.008c5.715,0,10.348,4.633,10.348,10.348v22.432
				C307.11,81.932,302.477,86.565,296.762,86.565z"/>
			<path id="XMLID_994_" style="fill:#945AE0;" d="M307.108,53.78v1.32h-71.36c-5.71,0-10.34,4.64-10.34,10.35v21.11h-9.66
				c-5.71,0-10.34-4.63-10.34-10.34V53.78c0-5.71,4.63-10.34,10.34-10.34h81.01C302.478,43.44,307.108,48.07,307.108,53.78z"/>
			<path id="XMLID_993_" style="fill:#BC8FF9;" d="M278.591,71.487h-44.667c-3.038,0-5.5-2.462-5.5-5.5v-1
				c0-3.038,2.462-5.5,5.5-5.5h44.667c3.038,0,5.5,2.462,5.5,5.5v1C284.091,69.024,281.629,71.487,278.591,71.487z"/>
		</g>
		<path id="XMLID_991_" style="fill:#BABABA;" d="M272.639,206.371h-34.761c-5.036,0-9.119,4.083-9.119,9.119v7.501h53v-7.501
			C281.758,210.454,277.675,206.371,272.639,206.371z"/>
	</g>
</g>
</svg>
