<?xml version="1.0" encoding="iso-8859-1"?>
<!-- Generator: Adobe Illustrator 22.0.1, SVG Export Plug-In . SVG Version: 6.00 Build 0)  -->
<svg version="1.1" xmlns="http://www.w3.org/2000/svg" xmlns:xlink="http://www.w3.org/1999/xlink" x="0px" y="0px"
	 viewBox="0 0 512 512" style="enable-background:new 0 0 512 512;" xml:space="preserve">
<g id="BULINE">
	<circle id="XMLID_825_" style="fill:#F9BD38;" cx="256" cy="256" r="256"/>
</g>
<g id="Icons">
	<g id="XMLID_1727_">
		<g id="XMLID_1732_">
			<path id="XMLID_1751_" style="fill:#AC60FC;" d="M328.657,464.005H131.954c-6.805,0-12.321-5.516-12.321-12.321V54.801
				c0-6.805,5.516-12.321,12.321-12.321h248.092c6.805,0,12.321,5.516,12.321,12.321v345.494
				C392.368,435.481,363.844,464.005,328.657,464.005z"/>
			<path id="XMLID_1750_" style="fill:#9B5EEA;" d="M392.368,380.43v19.866c0,35.183-28.528,63.711-63.711,63.711H131.949
				c-6.797,0-12.317-5.52-12.317-12.328V54.806c0-6.807,5.52-12.328,12.317-12.328h70.595v325.635
				c0,6.807,5.52,12.317,12.317,12.317H392.368z"/>
			<path id="XMLID_1749_" style="fill:#27273D;" d="M355.022,235.09H154.955c-5.349,0-9.685-4.336-9.685-9.685V86.348
				c0-5.349,4.336-9.685,9.685-9.685h202.091c5.349,0,9.685,4.336,9.685,9.685v137.033
				C366.73,229.848,361.488,235.09,355.022,235.09z"/>
			<path id="XMLID_1748_" style="fill:#4ACE99;" d="M341.639,219.854H170.361c-3.916,0-7.091-3.175-7.091-7.091v-114.1
				c0-3.916,3.175-7.091,7.091-7.091h171.278c3.916,0,7.091,3.175,7.091,7.091v114.1
				C348.73,216.679,345.555,219.854,341.639,219.854z"/>
			<path id="XMLID_1747_" style="fill:#38C689;" d="M348.73,180.94v31.823c0,3.916-3.175,7.091-7.091,7.091H170.361
				c-3.917,0-7.091-3.175-7.091-7.091V98.662c0-3.916,3.175-7.091,7.091-7.091h54.002v82.279c0,3.917,3.175,7.091,7.091,7.091
				H348.73z"/>
			<path id="XMLID_1746_" style="fill:#27273D;" d="M222.132,308.305H211.32c-3.541,0-6.412-2.871-6.412-6.412v-10.813
				c0-3.541-2.871-6.412-6.412-6.412h-23.177c-3.541,0-6.412,2.871-6.412,6.412v10.813c0,3.541-2.871,6.412-6.412,6.412h-10.813
				c-3.541,0-6.412,2.871-6.412,6.412v23.177c0,3.541,2.871,6.412,6.412,6.412h10.813c3.541,0,6.412,2.871,6.412,6.412v10.813
				c0,3.541,2.871,6.412,6.412,6.412h23.177c3.541,0,6.412-2.871,6.412-6.412v-10.813c0-3.541,2.871-6.412,6.412-6.412h10.813
				c3.541,0,6.412-2.871,6.412-6.412v-23.177C228.545,311.176,225.674,308.305,222.132,308.305z"/>
			<circle id="XMLID_1745_" style="fill:#32314B;" cx="186.907" cy="326.306" r="13.091"/>
			<path id="XMLID_1744_" style="fill:#954CF7;" d="M293.311,374.818l-9.391-13.323c-4.213-5.977-2.783-14.238,3.194-18.451
				l50.642-35.696c5.977-4.213,14.238-2.783,18.451,3.194l9.391,13.323c4.213,5.977,2.783,14.238-3.194,18.451l-50.642,35.696
				C305.785,382.225,297.524,380.795,293.311,374.818z"/>
			<circle id="XMLID_1743_" style="fill:#FC3268;" cx="304.598" cy="355.395" r="16.001"/>
			<circle id="XMLID_1742_" style="fill:#FC3268;" cx="341.076" cy="332.164" r="16.001"/>
			<path id="XMLID_1741_" style="fill:#954CF7;" d="M272.16,321.216l-9.391-13.323c-4.213-5.977-2.783-14.238,3.194-18.451
				l50.642-35.696c5.977-4.213,14.238-2.783,18.451,3.194l9.391,13.323c4.213,5.977,2.783,14.238-3.194,18.451l-50.642,35.696
				C284.634,328.623,276.373,327.193,272.16,321.216z"/>
			<circle id="XMLID_1740_" style="fill:#F8D572;" cx="284.437" cy="300.803" r="16.001"/>
			<circle id="XMLID_1739_" style="fill:#F8D572;" cx="320.915" cy="277.572" r="16.001"/>
			<path id="XMLID_1738_" style="fill:#954CF7;" d="M328.124,453.082L328.124,453.082c-3.692,3.692-9.679,3.692-13.371,0
				l-19.542-19.542c-3.692-3.692-3.692-9.679,0-13.371h0c3.692-3.692,9.679-3.692,13.371,0l19.542,19.542
				C331.817,443.403,331.817,449.39,328.124,453.082z"/>
			<path id="XMLID_1737_" style="fill:#27273D;" d="M185.265,392.215L185.265,392.215c3.692-3.692,9.679-3.692,13.371,0
				l19.542,19.542c3.692,3.692,3.692,9.679,0,13.371h0c-3.692,3.692-9.679,3.692-13.371,0l-19.542-19.542
				C181.573,401.894,181.573,395.908,185.265,392.215z"/>
			<path id="XMLID_1735_" style="fill:#27273D;" d="M236.634,392.215L236.634,392.215c3.692-3.692,9.679-3.692,13.371,0
				l19.542,19.542c3.692,3.692,3.692,9.679,0,13.371h0c-3.692,3.692-9.679,3.692-13.371,0l-19.542-19.542
				C232.942,401.894,232.942,395.908,236.634,392.215z"/>
			<path id="XMLID_1734_" style="fill:#954CF7;" d="M354.307,428.354L354.307,428.354c-3.692,3.692-9.679,3.692-13.371,0
				l-19.542-19.542c-3.692-3.692-3.692-9.679,0-13.371h0c3.692-3.692,9.679-3.692,13.371,0l19.542,19.542
				C357.999,418.675,357.999,424.662,354.307,428.354z"/>
			<path id="XMLID_1733_" style="fill:#954CF7;" d="M379.762,403.626L379.762,403.626c-3.692,3.692-9.679,3.692-13.371,0
				l-19.542-19.542c-3.692-3.692-3.692-9.679,0-13.371l0,0c3.692-3.692,9.679-3.692,13.371,0l19.542,19.542
				C383.455,393.948,383.455,399.934,379.762,403.626z"/>
		</g>
		<rect id="XMLID_1730_" x="256.574" y="109.457" style="fill:#94EDC7;" width="25.021" height="25.021"/>
		<rect id="XMLID_1729_" x="306.874" y="109.457" style="fill:#94EDC7;" width="25.021" height="25.021"/>
		<rect id="XMLID_1728_" x="281.852" y="134.379" style="fill:#94EDC7;" width="25.021" height="25.021"/>
	</g>
</g>
</svg>
