<?xml version="1.0" encoding="iso-8859-1"?>
<!-- Generator: Adobe Illustrator 22.0.1, SVG Export Plug-In . SVG Version: 6.00 Build 0)  -->
<svg version="1.1" xmlns="http://www.w3.org/2000/svg" xmlns:xlink="http://www.w3.org/1999/xlink" x="0px" y="0px"
	 viewBox="0 0 512 512" style="enable-background:new 0 0 512 512;" xml:space="preserve">
<g id="BULINE">
	<circle id="XMLID_948_" style="fill:#00BBF0;" cx="256" cy="256" r="256"/>
</g>
<g id="Icons">
	<g id="XMLID_117_">
		<path id="XMLID_334_" style="fill:#F8D572;" d="M170.717,141.363c0,6.311-58.657,17.638-57.604,23.647
			c1.082,6.18,60.103-3.172,62.202,2.592c2.136,5.867-49.071,36.633-45.985,41.966c3.115,5.384,55.342-23.651,59.319-18.917
			c3.988,4.748-33.639,51.166-28.89,55.154c4.735,3.977,43.94-41.106,49.324-37.992c5.333,3.086-14.181,59.566-8.314,61.702
			c5.764,2.098,27.109-53.693,33.289-52.61c6.009,1.052,7.046,60.807,13.357,60.807s7.348-59.754,13.357-60.807
			c6.18-1.082,27.525,54.709,33.289,52.61c5.867-2.136-13.648-58.616-8.314-61.702c5.384-3.115,44.59,41.968,49.324,37.991
			c4.748-3.988-32.879-50.405-28.891-55.154c3.977-4.735,56.204,24.3,59.319,18.917c3.086-5.333-48.121-36.099-45.985-41.966
			c2.098-5.764,61.119,3.588,62.202-2.592c1.052-6.009-57.604-17.337-57.604-23.647c0-6.311,58.657-17.638,57.604-23.647
			c-1.082-6.18-60.103,3.172-62.202-2.592c-2.136-5.867,49.071-36.633,45.985-41.966c-3.115-5.384-55.342,23.651-59.319,18.917
			c-3.988-4.748,33.639-51.166,28.89-55.154c-4.734-3.977-43.94,41.106-49.324,37.992c-5.333-3.086,14.181-59.566,8.314-61.702
			c-5.764-2.098-27.109,53.693-33.289,52.61c-6.009-1.052-7.046-60.807-13.357-60.807c-6.311,0-7.348,59.754-13.357,60.807
			c-6.18,1.082-27.525-54.709-33.289-52.61c-5.867,2.136,13.648,58.616,8.314,61.702c-5.384,3.115-44.59-41.968-49.324-37.991
			c-4.748,3.988,32.879,50.405,28.891,55.154c-3.977,4.735-56.204-24.3-59.319-18.917c-3.086,5.333,48.121,36.099,45.985,41.966
			c-2.098,5.764-61.119-3.588-62.202,2.592C112.06,123.724,170.717,135.052,170.717,141.363z"/>
		<path id="XMLID_333_" style="fill:#AF1919;" d="M463.013,178.266v0.121c0-0.041,0.003-0.08,0.003-0.121H463.013z"/>
		<g id="XMLID_303_">
			<path id="XMLID_331_" style="fill:#DD1B1B;" d="M316.058,486.986H183.124c-6.914,0-12.52-5.605-12.52-12.52v-95.618h157.973
				v95.618C328.577,481.381,322.972,486.986,316.058,486.986z"/>
			<path id="XMLID_330_" style="fill:#AD1818;" d="M328.576,378.852v41.327h-49.837c-30.432,0-55.102,24.67-55.102,55.102v11.703
				h-40.521c-6.91,0-12.512-5.602-12.512-12.512v-95.619H328.576z"/>
			<path id="XMLID_329_" style="fill:#AF1919;" d="M364.839,191.911v121.242c0,49.83-40.397,90.226-90.226,90.226h-55.109
				c-23.928,0-45.676-9.319-61.825-24.517c-39.043-6.964-68.695-41.058-68.695-82.106V247.95
				c0.052-28.96,16.737-53.993,41.006-66.102c0.775-0.393,1.57-0.765,2.366-1.126c0.031-0.01,0.052-0.021,0.083-0.031
				c0.558-0.258,1.116-0.506,1.684-0.744c0.589-0.248,1.178-0.496,1.777-0.734c1.199-0.475,2.418-0.909,3.647-1.322
				c0.61-0.207,1.229-0.403,1.849-0.589c0.558-0.176,1.116-0.341,1.684-0.496c0.072-0.021,0.145-0.041,0.227-0.062
				c0.434-0.124,0.868-0.238,1.312-0.341c0.424-0.124,0.858-0.227,1.291-0.32c0.641-0.155,1.281-0.3,1.922-0.434
				c0.579-0.124,1.157-0.238,1.736-0.341c0.217-0.041,0.434-0.083,0.651-0.114c0.589-0.103,1.188-0.207,1.777-0.289
				c0.041-0.01,0.093-0.021,0.134-0.021c0.599-0.093,1.209-0.176,1.808-0.238c0.134-0.031,0.269-0.041,0.403-0.052
				c0.486-0.062,0.971-0.114,1.457-0.155c0.289-0.031,0.579-0.062,0.868-0.083c0.992-0.083,1.994-0.155,2.996-0.186
				c0.424-0.031,0.837-0.041,1.26-0.052c0.682-0.021,1.364-0.031,2.046-0.031h12.181c1.343,0,2.676,0.052,3.998,0.155
				c0.341,0.021,0.672,0.052,1.012,0.083c0.258,0.021,0.517,0.052,0.765,0.083c0.475,0.052,0.95,0.114,1.415,0.176
				c0.475,0.062,0.94,0.134,1.405,0.217c0.465,0.072,0.93,0.155,1.384,0.248h0.031c0.372,0.072,0.744,0.155,1.105,0.238
				c2.407,0.517,4.753,1.209,7.015,2.056c0.403,0.155,0.806,0.31,1.198,0.465c0.858,0.341,1.705,0.703,2.531,1.095
				c0.413,0.196,0.827,0.393,1.24,0.599c0.403,0.196,0.806,0.413,1.209,0.62c0.403,0.217,0.806,0.434,1.199,0.661
				c5.155,2.914,9.763,6.685,13.627,11.127H364.839z"/>
			<path id="XMLID_328_" style="fill:#9B1B1B;" d="M334.051,381.021c-15.869,13.927-36.667,22.358-59.438,22.358h-55.109
				c-23.928,0-45.676-9.319-61.825-24.517c-39.043-6.964-68.695-41.058-68.695-82.106V247.95
				c0.052-28.96,16.737-53.993,40.996-66.102c0.858-0.434,1.736-0.847,2.614-1.24c-14.506,13.462-23.598,32.689-23.639,54.045
				v48.807c0,41.058,29.652,75.152,68.695,82.116c16.148,15.198,37.896,24.517,61.825,24.517h55.109
				C308.738,390.093,322.128,386.838,334.051,381.021z"/>
			<path id="XMLID_327_" style="fill:#DD1B1B;" d="M292.234,119.3h-90.351c-36.684,0-66.996,27.211-71.896,62.546
				c9.932-4.956,21.125-7.759,32.979-7.759h12.185c28.681,0,51.932,23.251,51.932,51.932v0c0,17.549-8.714,33.054-22.041,42.455
				c-5.644,3.981-12.111,6.871-19.103,8.348c6.067,2.523,12.461,4.418,19.103,5.596c5.248,0.931,10.65,1.418,16.166,1.418h51.699
				c50.772,0,91.931-41.159,91.931-91.931v0C364.839,151.807,332.332,119.3,292.234,119.3z"/>
			<path id="XMLID_326_" style="fill:#C91B1B;" d="M233.403,119.3c-33.939,0-62.434,23.308-70.39,54.789h-0.899
				c-11.85,0-23.05,2.8-32.979,7.759c4.897-35.334,35.21-62.548,71.898-62.548H233.403z"/>
			<path id="XMLID_325_" style="fill:#9B1B1B;" d="M364.736,209.763c-2.446,49.39-43.911,87.851-93.361,87.851l-50.167,0
				c-5.517,0-10.921-0.486-16.169-1.415c-0.066-0.012-0.133-0.024-0.199-0.036c-5.99-1.076-7.463-9.04-2.296-12.256
				c0.784-0.488,1.554-0.995,2.309-1.522c0.002,0,0.004-0.001,0.005-0.001c5.305,0.951,10.769,1.458,16.35,1.458h51.7
				c48.321,0,87.933-37.287,91.642-84.647C364.867,202.649,364.914,206.157,364.736,209.763z"/>
			
				<ellipse id="XMLID_324_" transform="matrix(0.7757 -0.6312 0.6312 0.7757 -30.581 225.1381)" style="fill:#FFDCDC;" cx="301.404" cy="155.586" rx="17.276" ry="21.984"/>
			
				<ellipse id="XMLID_322_" transform="matrix(0.7757 -0.6312 0.6312 0.7757 -45.562 249.7805)" style="fill:#FFDCDC;" cx="328.577" cy="188.981" rx="10.233" ry="13.022"/>
			<path id="XMLID_305_" style="fill:#DDA533;" d="M272.102,470.429L272.102,470.429c-4.371,4.371-11.458,4.371-15.829,0
				l-33.549-33.549c-4.371-4.371-4.371-11.458,0-15.829l0,0c4.371-4.371,11.458-4.371,15.829,0l33.549,33.549
				C276.473,458.971,276.473,466.058,272.102,470.429z"/>
			<path id="XMLID_304_" style="fill:#F9BD38;" d="M222.724,470.429L222.724,470.429c4.371,4.371,11.458,4.371,15.829,0
				l33.549-33.549c4.371-4.371,4.371-11.458,0-15.829v0c-4.371-4.371-11.458-4.371-15.829,0L222.724,454.6
				C218.353,458.971,218.353,466.058,222.724,470.429z"/>
		</g>
	</g>
</g>
</svg>
