Afghanistan|افغانستان|af
Albania|آلبانی|al
Algeria|الجریا|dz
Andorra|اندورا|ad
Angola|آنگولا|ao
Antigua and Barbuda||ag
Argentina|آرژانتین|ar
Armenia|ارمنیا|am
Australia||au
Austria||at
Azerbaijan||az
Bahamas||bs
Bahrain||bh
Bangladesh||bd
Barbados||bb
Belarus||by
Belgium||be
Belize||bz
Benin||bj
Bhutan||bt
Bolivia||bo
Bosnia and Herz.||ba
Botswana||bw
Brazil||br
Brunei||bn
Bulgaria||bg
Burkina Faso||bf
Burundi||bi
Cambodia||kh
Cameroon||cm
Canada||ca
Cape Verde||cv
Central African Rep.||cf
Chad||td
Chile||cl
China||cn
Colombia||co
Comoros||km
Congo, The Democr. Rep. of the||cd
Costa Rica||cr
Cote d\'Ivoire||ci
Croatia||hr
Cuba||cu
Cyprus||cy
Czech Republic||cz
Denmark||dk
Djibouti||dj
Dominica||dm
Dominican Republic||do
East Timor||tl
Ecuador||ec
Egypt||eg
El Salvador||sv
Equatorial Guinea||gq
Eritrea||er
Estonia||ee
Ethiopia||et
Fiji||fj
Finland||fi
France||fr
French Polynesia||pf
Gabon||ga
Gambia, The||gm
Georgia||ge
Germany||de
Ghana||gh
Gibraltar||gi
Greece||gr
Greenland||gl
Grenada||gd
Guadeloupe||gp
Guatemala||gt
Guinea||gn
Guinea-Bissau||gw
Guyana||gy
Haiti||ht
Honduras||hn
Hong Kong SAR||hk
Hungary||hu
Iceland||is
India||in
Indonesia||id
Iran||ir
Iraq||iq
Ireland||ie
Israel||il
Italy||it
Jamaica||jm
Japan||jp
Jordan||jo
Kazakhstan||kz
Kenya||ke
Kiribati||ki
Korea, North||kp
Korea, South||kr
Kuwait||kw
Kyrgyzstan||kg
Laos||la
Latvia||lv
Lebanon||lb
Lesotho||ls
Liberia||lr
Libya||ly
Liechtenstein||li
Lithuania||lt
Luxembourg||lu
Macau SAR||mo
Macedonia||mk
Madagascar||mg
Malawi||mw
Malaysia||my
Maldives||mv
Mali||ml
Malta||mt
Marshall Islands||mh
Martinique||mq
Mauritania||mr
Mauritius||mu
Mexico||mx
Micronesia, Fed. States of||fm
Moldova||md
Monaco||mc
Mongolia||mn
Montenegro||me
Morocco||ma
Mozambique||mz
Myanmar||mm
Namibia||na
Nauru||nr
Nepal||np
Netherlands||nl
New Caledonia||nc
New Zealand||nz
Nicaragua||ni
Niger||ne
Nigeria||ng
Northern Mariana Islands||mp
Norway||no
Oman||om
Pakistan||pk
Palau||pw
Palestinian Territories||ps
Panama||pa
Papua New Guinea||pg
Paraguay||py
Peru||pe
Philippines||ph
Poland||pl
Portugal||pt
Puerto Rico||pr
Qatar||qa
Réunion||re
Romania||ro
Russian Federation||ru
Rwanda||rw
Saint Kitts and Nevis||kn
Saint Lucia||lc
Samoa||ws
San Marino||sm
Sao Tome and Princ.||st
Saudi Arabia||sa
Senegal||sn
Serbia||rs
Seychelles||sc
Sierra Leone||sl
Singapore||sg
Slovakia||sk
Slovenia||si
Solomon Islands||sb
Somalia||so
South Africa||za
Spain||es
Sri Lanka||lk
St Vincent and Gren.||vc
Sudan||sd
Suriname||sr
Swaziland||sz
Sweden||se
Switzerland||ch
Syria||sy
Taiwan||tw
Tajikistan||tj
Tanzania||tz
Thailand||th
Togo||tg
Tonga||to
Trinidad and Tobago||tt
Tunisia||tn
Turkey||tr
Turkmenistan||tm
Tuvalu||tv
Uganda||ug
Ukraine||ua
United Arab Emirates||ae
United Kingdom||gb
United States||us
Uruguay||uy
Uzbekistan||uz
Vanuatu||vu
Vatican City||va
Venezuela||ve
Vietnam||vn
Virgin Islands, British||vg
Virgin Islands, U.S.||vi
Western Sahara||eh
Yemen||ye
Zambia||zm
Zimbabwe||zw
