<?xml version="1.0" encoding="utf-8"?>
<!-- Generator: Adobe Illustrator 24.3.0, SVG Export Plug-In . SVG Version: 6.00 Build 0)  -->
<svg version="1.1" id="Layer_1" xmlns="http://www.w3.org/2000/svg" xmlns:xlink="http://www.w3.org/1999/xlink" x="0px" y="0px"
	 viewBox="0 0 1080 1080" style="enable-background:new 0 0 1080 1080;" xml:space="preserve">
<style type="text/css">
	.st0{fill-rule:evenodd;clip-rule:evenodd;fill:#A2D7ED;}
</style>
<path class="st0" d="M573.6,903V684.3L763,574.9v218.7L573.6,903L573.6,903z M331,574.9l189.4,109.3V903L331,793.6V574.9L331,574.9z
	 M547,638.2l189.4-109.3L547,419.5L357.6,528.8L547,638.2L547,638.2z M1046.5,927.2L816.3,794.2V513.5L573.6,373.4V100.2h-53.2
	v273.2L277.8,513.5v276.4l-1.6-2.8L33.5,927.2l26.6,46.1L297.9,836L547,979.8L789.1,840l230.7,133.2L1046.5,927.2z"/>
</svg>
