<?xml version="1.0" encoding="utf-8"?>
<!-- Generator: Adobe Illustrator 24.3.0, SVG Export Plug-In . SVG Version: 6.00 Build 0)  -->
<svg version="1.1" id="Layer_1" xmlns="http://www.w3.org/2000/svg" xmlns:xlink="http://www.w3.org/1999/xlink" x="0px" y="0px"
	 viewBox="0 0 1080 1080" style="enable-background:new 0 0 1080 1080;" xml:space="preserve">
<style type="text/css">
	.st0{display:none;}
	.st1{display:inline;fill:#FF8A2A;}
	.st2{fill:url(#SVGID_1_);}
	.st3{fill:url(#SVGID_2_);}
</style>
<image style="display:none;overflow:visible;" width="1080" height="1080" xlink:href="E5AC0743.png"  transform="matrix(0.24 0 0 0.24 410.4 411.7234)">
</image>
<g class="st0">
	<path class="st1" d="M539.6,577.4c-14,0-34.9-10.5-34.9-35.1c0-24.6,19.9-35.3,35.3-35.3c11.6,0,19.5,5.8,22.7,8.6
		c0.9,0.8,2.3,0.8,3.2-0.1c1.3-1.3,3.4-3.4,6-6c1-1,0.9-2.5-0.1-3.4c-4.9-4.5-10.5-7.3-13.1-8.4c-0.9-0.4-1.4-1.2-1.4-2.1v-6.5
		c0-1.3-1.1-2.3-2.3-2.3h-4.6c-1.3,0-2.3,1.1-2.3,2.3v2.7c0,1.4-1.2,2.5-2.6,2.3c-4.7-0.6-9-0.3-11.7,0c-1.4,0.2-2.6-0.9-2.6-2.3
		v-2.7c0-1.3-1.1-2.3-2.3-2.3h-4.6c-1.3,0-2.3,1.1-2.3,2.3v6.5c0,0.9-0.6,1.8-1.4,2.2c-6.1,2.5-29.2,14.1-29.2,44.4
		c0,30.3,23.2,42.1,29.2,44.6c0.9,0.4,1.4,1.2,1.4,2.2v6.3c0,1.3,1.1,2.3,2.3,2.3h4.7c1.3,0,2.3-1.1,2.3-2.3v-2.7
		c0-1.4,1.2-2.5,2.7-2.3c4.9,0.6,9,0.3,11.5,0c1.4-0.2,2.6,0.9,2.6,2.3v2.6c0,1.3,1.1,2.3,2.3,2.3h4.7c1.3,0,2.3-1.1,2.3-2.3v-6.6
		c0-0.9,0.5-1.8,1.4-2.1c6.4-2.7,11-6.4,13.4-8.5c1-0.9,1-2.4,0.1-3.4l-6.1-6.1c-0.9-0.9-2.3-0.9-3.2-0.1
		C559.4,571.5,551.2,577.4,539.6,577.4z"/>
	<path class="st1" d="M571.3,527.2h-48.6c-4.4,0-8,3.6-8,8v12.4c0,4.4,3.6,8,8,8h48.6c4.4,0,8-3.6,8-8v-12.4
		C579.3,530.8,575.7,527.2,571.3,527.2z M563.9,533.8c1.5,0,2.8,1.2,2.8,2.8c0,1.5-1.2,2.8-2.8,2.8c-1.5,0-2.8-1.2-2.8-2.8
		C561.1,535,562.3,533.8,563.9,533.8z M538.6,541.7c0,1.1-0.9,2-2,2h-4v3.9c0,1.1-0.9,2-2,2h-0.4c-1.1,0-2-0.9-2-2v-3.9h-3.8
		c-1.1,0-2-0.9-2-2v-0.4c0-1.1,0.9-2,2-2h3.8v-3.9c0-1.1,0.9-2,2-2h0.4c1.1,0,2,0.9,2,2v3.9h4c1.1,0,2,0.9,2,2V541.7z M556.4,541.3
		c0-1.5,1.2-2.8,2.8-2.8c1.5,0,2.8,1.2,2.8,2.8c0,1.5-1.2,2.8-2.8,2.8C557.6,544,556.4,542.8,556.4,541.3z M563.9,548.8
		c-1.5,0-2.8-1.2-2.8-2.8c0-1.5,1.2-2.8,2.8-2.8c1.5,0,2.8,1.2,2.8,2.8C566.7,547.6,565.4,548.8,563.9,548.8z M568.7,544.2
		c-1.5,0-2.8-1.2-2.8-2.8c0-1.5,1.2-2.8,2.8-2.8c1.5,0,2.8,1.2,2.8,2.8C571.5,542.9,570.3,544.2,568.7,544.2z"/>
</g>
<g>
	<linearGradient id="SVGID_1_" gradientUnits="userSpaceOnUse" x1="210.9844" y1="729.4721" x2="1041.0066" y2="304.2256">
		<stop  offset="0" style="stop-color:#1DA1F2"/>
		<stop  offset="1" style="stop-color:#1DD5E6"/>
	</linearGradient>
	<path class="st2" d="M581,839.7c-131.3,0-301.3-68.9-301.3-299.7S436.5,240.3,581,240.3c115.9,0,180.7,54.6,201.8,76.2
		c4.5,4.6,11.8,4.7,16.4,0.2c16.4-16.1,53.9-52.8,91.9-90.7c4.6-4.6,4.6-12.1-0.1-16.7c-52.3-50.8-115.5-80.2-136.5-89.1
		c-4.3-1.8-7.1-6.1-7.1-10.7V31.5c0-6.4-5.2-11.7-11.7-11.7h-63.9c-6.4,0-11.7,5.2-11.7,11.7v47.6c0,7.1-6.4,12.6-13.4,11.5
		c-55.3-8.7-108-3.3-131.8,0.2c-7,1-13.3-4.4-13.3-11.5V31.5c0-6.4-5.2-11.7-11.7-11.7H426c-6.4,0-11.7,5.2-11.7,11.7v78.7
		c0,4.8-2.9,9.1-7.4,10.9c-45,17.6-279.6,123.3-279.6,418.5c0,295.3,234.9,403.3,279.7,421.2c4.4,1.8,7.3,6.1,7.3,10.8v76.9
		c0,6.4,5.2,11.7,11.7,11.7h64.9c6.4,0,11.7-5.2,11.7-11.7v-47c0-7.1,6.3-12.5,13.3-11.5c59,8.3,107.6,3.5,130,0.2
		c7-1,13.4,4.4,13.4,11.5v46.7c0,6.4,5.2,11.7,11.7,11.7h64.9c6.4,0,11.7-5.2,11.7-11.7v-79c0-4.7,2.9-9,7.2-10.7
		c72.2-29.7,120.5-71.8,139.1-89.8c4.8-4.6,4.7-12.2,0-16.8l-94.8-90.5c-4.6-4.4-11.8-4.3-16.3,0.2C757.7,786.5,697,839.7,581,839.7
		z"/>
	<linearGradient id="SVGID_2_" gradientUnits="userSpaceOnUse" x1="217.532" y1="740.6982" x2="1061.6641" y2="333.1637">
		<stop  offset="3.409785e-07" style="stop-color:#1DA1F2"/>
		<stop  offset="5.880358e-02" style="stop-color:#1DA6F1"/>
		<stop  offset="0.4193" style="stop-color:#1DC0EB"/>
		<stop  offset="0.7441" style="stop-color:#1DCFE7"/>
		<stop  offset="1" style="stop-color:#1DD5E6"/>
	</linearGradient>
	<path class="st3" d="M877.7,398.8H421.8c-41.3,0-75,33.8-75,75v116.3c0,41.3,33.8,75,75,75h455.9c41.3,0,75-33.8,75-75V473.9
		C952.8,432.6,919,398.8,877.7,398.8z M808.3,460.7c14.1,0,26.3,11.3,26.3,26.3c0,14.1-11.3,26.3-26.3,26.3
		c-14.1,0-26.3-11.3-26.3-26.3C782,472,793.3,460.7,808.3,460.7z M571,534.8c0,10.3-8.4,18.8-18.8,18.8h-37.5v36.6
		c0,10.3-8.4,18.8-18.8,18.8h-3.8c-10.3,0-18.8-8.4-18.8-18.8v-36.6h-35.6c-10.3,0-18.8-8.4-18.8-18.8v-3.8
		c0-10.3,8.4-18.8,18.8-18.8h35.6v-36.6c0-10.3,8.4-18.8,18.8-18.8h3.8c10.3,0,18.8,8.4,18.8,18.8v36.6h37.5
		c10.3,0,18.8,8.4,18.8,18.8V534.8z M737.9,531.1c0-14.1,11.3-26.3,26.3-26.3c14.1,0,26.3,11.3,26.3,26.3
		c0,14.1-11.3,26.3-26.3,26.3C749.2,556.4,737.9,545.2,737.9,531.1z M808.3,601.4c-14.1,0-26.3-11.3-26.3-26.3
		c0-14.1,11.3-26.3,26.3-26.3c14.1,0,26.3,11.3,26.3,26.3C834.6,590.2,822.4,601.4,808.3,601.4z M853.3,558.3
		c-14.1,0-26.3-11.3-26.3-26.3c0-14.1,11.3-26.3,26.3-26.3c14.1,0,26.3,11.3,26.3,26.3C879.6,546.1,868.3,558.3,853.3,558.3z"/>
</g>
</svg>
